Gráficos con R
…
Otros argumentos relacionados con los ejes y el titulo del gráfico son: main: titulo del gráfico; xlab, ylab: etiquetas los los ejes; log: ejes en escala log. Los valores permitidos son “x”, “y” o bien “xy”.

1.1 Distribución de una variable

Para intentar ver algo en un conjunto de datos, lo primero que se puede hacer es averiguar como se distribuyen sus valores. En R, hay funciones básicas (summary, stem, table, …) que permiten tener una idea de esta distribución.

El tipo de representación gráfica de la distribución cambia según la naturaleza de la variable en estudio. Una variable cuantitativa toma valores numéricos. Para una variable cuantitativa, se suele recurrir a un histograma o bien a un diagrama de caja para describir su distribución. Mientras que para variables cualitativas (o categóricas), se utilizará un diagrama de barras.

1.1.1 Histograma

Para ilustrar la descripción gráfica de una variable numérica, se utiliza la base de datos mpg que contiene información sobre el consumo (en millas/galón) según las características de un conjunto de modelos de coche:

mpg # ?mpg para más detalles

## # A tibble: 234 x 13
## # Groups:   model [38]
##    manufacturer model    displ  year   cyl trans   drv     cty   hwy fl   
##    <chr>        <chr>    <dbl> <int> <int> <chr>   <chr> <int> <int> <chr>
##  1 audi         a4        1.80  1999     4 auto(l~ f        18    29 p    
##  2 audi         a4        1.80  1999     4 manual~ f        21    29 p    
##  3 audi         a4        2.00  2008     4 manual~ f        20    31 p    
##  4 audi         a4        2.00  2008     4 auto(a~ f        21    30 p    
##  5 audi         a4        2.80  1999     6 auto(l~ f        16    26 p    
##  6 audi         a4        2.80  1999     6 manual~ f        18    26 p    
##  7 audi         a4        3.10  2008     6 auto(a~ f        18    27 p    
##  8 audi         a4 quat~  1.80  1999     4 manual~ 4        18    26 p    
##  9 audi         a4 quat~  1.80  1999     4 auto(l~ 4        16    25 p    
## 10 audi         a4 quat~  2.00  2008     4 manual~ 4        20    28 p    
## # ... with 224 more rows, and 3 more variables: class <chr>,
## #   consumo <dbl>, media <dbl>
…
