Gráficos con R
…
2.1 Elementos de un gráfico en ggplot2

El gráfico anterior, se obtuvo de la siguiente manera. En primer lugar, se carga los datos del paro:

paro <- read_csv("data/paro.csv") #carga los datos
paro

## # A tibble: 1,664 x 6
##      Año Trimestre Tasa.paro Sexo    Prov.id Provincia  
##    <int> <chr>         <dbl> <chr>   <chr>   <chr>      
##  1  2011 I             10.8  Mujeres 01      Araba/Álava
##  2  2011 II             9.35 Mujeres 01      Araba/Álava
##  3  2011 III           11.0  Mujeres 01      Araba/Álava
##  4  2011 IV            12.9  Mujeres 01      Araba/Álava
##  5  2012 I             16.3  Mujeres 01      Araba/Álava
##  6  2012 II            14.7  Mujeres 01      Araba/Álava
##  7  2012 III           15.8  Mujeres 01      Araba/Álava
##  8  2012 IV            18.8  Mujeres 01      Araba/Álava
##  9  2013 I             18.1  Mujeres 01      Araba/Álava
## 10  2013 II            16.1  Mujeres 01      Araba/Álava
## # ... with 1,654 more rows
…
